…
## 3. Androgynous names

``` r
bbyname <- babynames %>% group_by(., name, sex) %>% summarise( total_n=sum(n))
androgynous <- bbyname %>% spread(., key=sex, value=total_n) %>% drop_na(F, M)

# Finding names that are used for both
androgynous['name']
```

    ## # A tibble: 10,663 x 1
    ## # Groups:   name [10,663]
    ##    name   
    ##    <chr>  
    ##  1 Aaden  
    ##  2 Aadi   
    ##  3 Aadyn  
    ##  4 Aalijah
    ##  5 Aaliyah
    ##  6 Aaliyan
    ##  7 Aamari 
    ##  8 Aamir  
    ##  9 Aaren  
    ## 10 Aareon 
    ## # ... with 10,653 more rows

``` r
#total num of occurences of each name/ select those that occur more than 100000 times
androgynous$total_num <- androgynous$F + androgynous$M
androgynous_filtered <- androgynous %>% filter(total_num > 100000) %>% arrange(desc(total_num))

androgynous_filtered
```

    ## # A tibble: 647 x 4
    ## # Groups:   name [647]
    ##    name          F       M total_num
    ##    <chr>     <int>   <int>     <int>
    ##  1 James     23356 5150472   5173828
    ##  2 John      21676 5115466   5137142
    ##  3 Robert    20100 4814815   4834915
    ##  4 Michael   21712 4350824   4372536
    ##  5 Mary    4123200   15160   4138360
    ##  6 William   15949 4102604   4118553
    ##  7 David     12896 3611329   3624225
    ##  8 Joseph    10638 2603445   2614083
    ##  9 Richard    9531 2563082   2572613
    ## 10 Charles   12405 2386048   2398453
    ## # ... with 637 more rows

``` r
#finding faily even distribution betweene boys/girls

androgynous_filtered$f_prop <- androgynous_filtered$F / androgynous_filtered$total_num
androgynous_filtered$m_prop <- androgynous_filtered$M / androgynous_filtered$total_num
androgynous_filtered
```

    ## # A tibble: 647 x 6
    ## # Groups:   name [647]
    ##    name          F       M total_num  f_prop  m_prop
    ##    <chr>     <int>   <int>     <int>   <dbl>   <dbl>
    ##  1 James     23356 5150472   5173828 0.00451 0.995  
    ##  2 John      21676 5115466   5137142 0.00422 0.996  
    ##  3 Robert    20100 4814815   4834915 0.00416 0.996  
    ##  4 Michael   21712 4350824   4372536 0.00497 0.995  
    ##  5 Mary    4123200   15160   4138360 0.996   0.00366
    ##  6 William   15949 4102604   4118553 0.00387 0.996  
    ##  7 David     12896 3611329   3624225 0.00356 0.996  
    ##  8 Joseph    10638 2603445   2614083 0.00407 0.996  
    ##  9 Richard    9531 2563082   2572613 0.00370 0.996  
    ## 10 Charles   12405 2386048   2398453 0.00517 0.995  
    ## # ... with 637 more rows
…
