…
vstart_names <- barnnamn$name %>% str_subset(vowel_pattern)

vstart_data <- barnnamn %>% 
  filter(name %in% vstart_names) %>% 
  group_by(year, sex) %>% 
  summarise(total = sum(prop)) %>% 
  mutate(start="vowel")

vstart_data
```

    ## # A tibble: 46 x 4
    ## # Groups:   year [23]
    ##     year sex   total start
    ##    <int> <chr> <dbl> <chr>
    ##  1  1998 F     0.289 vowel
    ##  2  1998 M     0.259 vowel
    ##  3  1999 F     0.296 vowel
    ##  4  1999 M     0.270 vowel
    ##  5  2000 F     0.293 vowel
    ##  6  2000 M     0.269 vowel
    ##  7  2001 F     0.290 vowel
    ##  8  2001 M     0.276 vowel
    ##  9  2002 F     0.309 vowel
    ## 10  2002 M     0.296 vowel
    ## # ... with 36 more rows
…
